Set,HD \ ND u PD,p
TF,LEF1,0.0011
TF,OCT1,0.0069
TF,AP2,0.0069
TF,NF1,0.0094
TF,HNF3,0.0096
TF,HFH8,0.011
TF,CEBP,0.011
TF,FOX,0.013
GO,EMBRYONIC_MORPHOGENESIS,0.00064
GO,INTERMEDIATE_FILAMENT_CYTOSKELETON,0.0014
GO,INTERMEDIATE_FILAMENT,0.0014
GO,PATTERN_SPECIFICATION_PROCESS,0.0039
GO,NUCLEAR_ENVELOPE,0.021
GO,ATP_DEPENDENT_DNA_HELICASE_ACTIVITY,0.033
GO,EMBRYONIC_DEVELOPMENT,0.046
GO,INFLAMMATORY_RESPONSE,0.046
GO,ENDOMEMBRANE_SYSTEM,0.047
