Set,ND \ HD u PD,p
C2,KEGG_RIBOSOME,5.0e-18
C2,REACTOME_PEPTIDE_CHAIN_ELONGATION,9.7e-08
C2,REACTOME_INFLUENZA_VIRAL_RNA_TRANSCRIPTION_AND_REPLICATION,9.7e-08
C2,REACTOME_SRP_DEPENDENT_COTRANSLATIONAL_PROTEIN_TARGETING_TO_MEMBRANE,1.2e-06
C2,REACTOME_3_UTR_MEDIATED_TRANSLATIONAL_REGULATION,1.8e-06
C2,REACTOME_NONSENSE_MEDIATED_DECAY_ENHANCED_BY_THE_EXON_JUNCTION_COMPLEX,4.6e-06
C2,REACTOME_INFLUENZA_LIFE_CYCLE,4.8e-06
C2,REACTOME_TRANSLATION,1.0e-05
C2,REACTOME_METABOLISM_OF_MRNA,2.1e-05
C2,REACTOME_PLATELET_ACTIVATION_SIGNALING_AND_AGGREGATION,3.5e-04
GO,STRUCTURAL_CONSTITUENT_OF_RIBOSOME,4.2e-16
GO,TRANSLATION,5.6e-04
GO,STRUCTURAL_MOLECULE_ACTIVITY,5.6e-04
GO,RNA_BINDING,1.1e-02
GO,GLUTAMATE_SIGNALING_PATHWAY,2.2e-02
GO,CELL_RECOGNITION,4.6e-02
GO,CELLULAR_BIOSYNTHETIC_PROCESS,4.6e-02
GO,CELL_MIGRATION,4.6e-02
